{"photos":{"page":1,"pages":912,"perpage":5,"total":"227905","photo":[{"id":"23485864920","owner":"66430340@N07","secret":"feca68b556","server":"684","farm":1,"title":"Barclays Center Arena - 20151215_2304","ispublic":1,"isfriend":0,"isfamily":0,"description":{"_content":""},"dateupload":"1450239006","ownername":"atlanticyardswebcam04","originalsecret":"de2cf47a75","originalformat":"jpg","latitude":"40.683166","longitude":"-73.973750","accuracy":"16","context":0,"place_id":"uUNC_q9TWr1vROR4wA","woeid":"28751452","geo_is_family":0,"geo_is_friend":0,"geo_is_contact":0,"geo_is_public":1},{"id":"23485846780","owner":"88589827@N00","secret":"2b53f12f9b","server":"590","farm":1,"title":"Hashtag Philly warehouse","ispublic":1,"isfriend":0,"isfamily":0,"description":{"_content":""},"dateupload":"1450238935","ownername":"aawiseman","originalsecret":"49c263c037","originalformat":"jpg","latitude":"39.980545","longitude":"-75.187789","accuracy":"16","context":0,"place_id":"oEeapypUVLv3xCRGlA","woeid":"56198980","geo_is_family":0,"geo_is_friend":0,"geo_is_contact":0,"geo_is_public":1},{"id":"23413587989","owner":"132153736@N04","secret":"c15a95a8c5","server":"650","farm":1,"title":"Sydney 2015 Dec 16 15:08","ispublic":1,"isfriend":0,"isfamily":0,"description":{"_content":"View of Sydney shot from a weather station on top of the Mathews building at the University of New South Wales, Kensington. Shot taken by the Climate Change Research Centre (<a href=\"http://ccrc.unsw.edu.au\" rel=\"nofollow\">ccrc.unsw.edu.au</a>) at 2015 Dec 16 15:08."},"dateupload":"1450238888","ownername":"ccrc_weather","originalsecret":"cba0bc3abe","originalformat":"jpg","latitude":"-33.917714","longitude":"151.234699","accuracy":"16","context":0,"place_id":"OCzQIH5QU7qiMq6c","woeid":"1107128","geo_is_family":0,"geo_is_friend":0,"geo_is_contact":0,"geo_is_public":1},{"id":"23154682883","owner":"97225209@N00","secret":"56ee146907","server":"778","farm":1,"title":"Holiday family photos - loving and soaking up family time - it just happens to be in Hawaii #holiday2015","ispublic":1,"isfriend":0,"isfamily":0,"description":{"_content":""},"dateupload":"1450238734","ownername":"cdorobek","originalsecret":"7aefa2edbe","originalformat":"jpg","latitude":"21.271810","longitude":"-157.773803","accuracy":"16","context":0,"place_id":"O7alymlTVrlC3SkI","woeid":"2430427","geo_is_family":0,"geo_is_friend":0,"geo_is_contact":0,"geo_is_public":1},{"id":"23154646773","owner":"132153736@N04","secret":"978e243081","server":"640","farm":1,"title":"Sydney 2015 Dec 16 15:03","ispublic":1,"isfriend":0,"isfamily":0,"description":{"_content":"View of Sydney shot from a weather station on top of the Mathews building at the University of New South Wales, Kensington. Shot taken by the Climate Change Research Centre (<a href=\"http://ccrc.unsw.edu.au\" rel=\"nofollow\">ccrc.unsw.edu.au</a>) at 2015 Dec 16 15:03."},"dateupload":"1450238588","ownername":"ccrc_weather","originalsecret":"1558ec7d83","originalformat":"jpg","latitude":"-33.917714","longitude":"151.234699","accuracy":"16","context":0,"place_id":"OCzQIH5QU7qiMq6c","woeid":"1107128","geo_is_family":0,"geo_is_friend":0,"geo_is_contact":0,"geo_is_public":1}]},"stat":"ok"}